<?xml version="1.0" encoding="UTF-8" standalone="no"?>
<!DOCTYPE svg PUBLIC "-//W3C//DTD SVG 1.1//EN"
 "http://www.w3.org/Graphics/SVG/1.1/DTD/svg11.dtd">
<!-- Generated by graphviz version 2.40.1 (20161225.0304)
 -->
<!-- Title: dependencies Pages: 1 -->
<svg width="6819pt" height="211pt"
 viewBox="0.00 0.00 6819.00 211.00" xmlns="http://www.w3.org/2000/svg" xmlns:xlink="http://www.w3.org/1999/xlink">
<g id="graph0" class="graph" transform="scale(1 1) rotate(0) translate(4 207)">
<title>dependencies</title>
<polygon fill="#ffffff" stroke="transparent" points="-4,4 -4,-207 6815,-207 6815,4 -4,4"/>
<text text-anchor="start" x="3384.5091" y="-42.4" font-family="sans-serif" font-weight="bold" font-size="14.00" fill="#000000">Legend</text>
<polygon fill="#ffffb3" stroke="transparent" points="3171.5,-10 3171.5,-30 3191.5,-30 3191.5,-10 3171.5,-10"/>
<text text-anchor="start" x="3195.129" y="-15.4" font-family="sans-serif" font-size="14.00" fill="#000000"> &#160;Declarations</text>
<polygon fill="#8dd3c7" stroke="transparent" points="3284.5,-10 3284.5,-30 3304.5,-30 3304.5,-10 3284.5,-10"/>
<text text-anchor="start" x="3308.2251" y="-15.4" font-family="sans-serif" font-size="14.00" fill="#000000"> &#160;Module</text>
<polygon fill="#80b1d3" stroke="transparent" points="3370.5,-10 3370.5,-30 3390.5,-30 3390.5,-10 3370.5,-10"/>
<text text-anchor="start" x="3394.2812" y="-15.4" font-family="sans-serif" font-size="14.00" fill="#000000"> &#160;Bootstrap</text>
<polygon fill="#fdb462" stroke="transparent" points="3467.5,-10 3467.5,-30 3487.5,-30 3487.5,-10 3467.5,-10"/>
<text text-anchor="start" x="3491.1732" y="-15.4" font-family="sans-serif" font-size="14.00" fill="#000000"> &#160;Providers</text>
<polygon fill="#fb8072" stroke="transparent" points="3563.5,-10 3563.5,-30 3583.5,-30 3583.5,-10 3563.5,-10"/>
<text text-anchor="start" x="3587.2258" y="-15.4" font-family="sans-serif" font-size="14.00" fill="#000000"> &#160;Exports</text>
<g id="clust1" class="cluster">
<title>cluster_MainModule</title>
<polygon fill="none" stroke="#000000" stroke-dasharray="1,5" points="8,-70 8,-195 6803,-195 6803,-70 8,-70"/>
</g>
<g id="clust2" class="cluster">
<title>cluster_MainModule_declarations</title>
<polygon fill="none" stroke="#000000" points="3038,-78 3038,-130 6795,-130 6795,-78 3038,-78"/>
</g>
<g id="clust27" class="cluster">
<title>cluster_MainModule_imports</title>
<polygon fill="none" stroke="#000000" points="1075,-78 1075,-130 3030,-130 3030,-78 1075,-78"/>
</g>
<g id="clust30" class="cluster">
<title>cluster_MainModule_providers</title>
<polygon fill="none" stroke="#000000" points="16,-78 16,-130 1067,-130 1067,-78 16,-78"/>
</g>
<!-- mainComponent -->
<g id="node1" class="node">
<title>mainComponent</title>
<polygon fill="#ffffb3" stroke="#000000" points="6786.8287,-122 6677.1713,-122 6677.1713,-86 6786.8287,-86 6786.8287,-122"/>
<text text-anchor="middle" x="6732" y="-99.8" font-family="Times,serif" font-size="14.00" fill="#000000">mainComponent</text>
</g>
<!-- MainModule -->
<g id="node25" class="node">
<title>MainModule</title>
<polygon fill="#8dd3c7" stroke="#000000" points="3417.5997,-187 3414.5997,-191 3393.5997,-191 3390.5997,-187 3328.4003,-187 3328.4003,-151 3417.5997,-151 3417.5997,-187"/>
<text text-anchor="middle" x="3373" y="-164.8" font-family="Times,serif" font-size="14.00" fill="#000000">MainModule</text>
</g>
<!-- mainComponent&#45;&gt;MainModule -->
<g id="edge1" class="edge">
<title>mainComponent&#45;&gt;MainModule</title>
<path fill="none" stroke="#000000" d="M6732,-122.1985C6732,-146.3563 6732,-186 6732,-186 6732,-186 3427.631,-186 3427.631,-186"/>
<polygon fill="#000000" stroke="#000000" points="3427.631,-182.5001 3417.631,-186 3427.631,-189.5001 3427.631,-182.5001"/>
</g>
<!-- DashboardComponent -->
<g id="node2" class="node">
<title>DashboardComponent</title>
<polygon fill="#ffffb3" stroke="#000000" points="6658.9734,-122 6517.0266,-122 6517.0266,-86 6658.9734,-86 6658.9734,-122"/>
<text text-anchor="middle" x="6588" y="-99.8" font-family="Times,serif" font-size="14.00" fill="#000000">DashboardComponent</text>
</g>
<!-- DashboardComponent&#45;&gt;MainModule -->
<g id="edge2" class="edge">
<title>DashboardComponent&#45;&gt;MainModule</title>
<path fill="none" stroke="#000000" d="M6588,-122.1532C6588,-145.7566 6588,-184 6588,-184 6588,-184 3427.8345,-184 3427.8345,-184"/>
<polygon fill="#000000" stroke="#000000" points="3427.8346,-180.5001 3417.8345,-184 3427.8345,-187.5001 3427.8346,-180.5001"/>
</g>
<!-- UserProfileComponent -->
<g id="node3" class="node">
<title>UserProfileComponent</title>
<polygon fill="#ffffb3" stroke="#000000" points="6498.8585,-122 6353.1415,-122 6353.1415,-86 6498.8585,-86 6498.8585,-122"/>
<text text-anchor="middle" x="6426" y="-99.8" font-family="Times,serif" font-size="14.00" fill="#000000">UserProfileComponent</text>
</g>
<!-- UserProfileComponent&#45;&gt;MainModule -->
<g id="edge3" class="edge">
<title>UserProfileComponent&#45;&gt;MainModule</title>
<path fill="none" stroke="#000000" d="M6426,-122.3228C6426,-145.6602 6426,-183 6426,-183 6426,-183 3427.6316,-183 3427.6316,-183"/>
<polygon fill="#000000" stroke="#000000" points="3427.6316,-179.5001 3417.6316,-183 3427.6315,-186.5001 3427.6316,-179.5001"/>
</g>
<!-- TableListComponent -->
<g id="node4" class="node">
<title>TableListComponent</title>
<polygon fill="#ffffb3" stroke="#000000" points="6335.4832,-122 6200.5168,-122 6200.5168,-86 6335.4832,-86 6335.4832,-122"/>
<text text-anchor="middle" x="6268" y="-99.8" font-family="Times,serif" font-size="14.00" fill="#000000">TableListComponent</text>
</g>
<!-- TableListComponent&#45;&gt;MainModule -->
<g id="edge4" class="edge">
<title>TableListComponent&#45;&gt;MainModule</title>
<path fill="none" stroke="#000000" d="M6268,-122.2479C6268,-145.0179 6268,-181 6268,-181 6268,-181 3427.6034,-181 3427.6034,-181"/>
<polygon fill="#000000" stroke="#000000" points="3427.6034,-177.5001 3417.6034,-181 3427.6033,-184.5001 3427.6034,-177.5001"/>
</g>
<!-- TypographyComponent -->
<g id="node5" class="node">
<title>TypographyComponent</title>
<polygon fill="#ffffb3" stroke="#000000" points="6182.7604,-122 6033.2396,-122 6033.2396,-86 6182.7604,-86 6182.7604,-122"/>
<text text-anchor="middle" x="6108" y="-99.8" font-family="Times,serif" font-size="14.00" fill="#000000">TypographyComponent</text>
</g>
<!-- TypographyComponent&#45;&gt;MainModule -->
<g id="edge5" class="edge">
<title>TypographyComponent&#45;&gt;MainModule</title>
<path fill="none" stroke="#000000" d="M6108,-122.1554C6108,-144.3519 6108,-179 6108,-179 6108,-179 3427.627,-179 3427.627,-179"/>
<polygon fill="#000000" stroke="#000000" points="3427.627,-175.5001 3417.627,-179 3427.6269,-182.5001 3427.627,-175.5001"/>
</g>
<!-- IconsComponent -->
<g id="node6" class="node">
<title>IconsComponent</title>
<polygon fill="#ffffb3" stroke="#000000" points="6014.6527,-122 5903.3473,-122 5903.3473,-86 6014.6527,-86 6014.6527,-122"/>
<text text-anchor="middle" x="5959" y="-99.8" font-family="Times,serif" font-size="14.00" fill="#000000">IconsComponent</text>
</g>
<!-- IconsComponent&#45;&gt;MainModule -->
<g id="edge6" class="edge">
<title>IconsComponent&#45;&gt;MainModule</title>
<path fill="none" stroke="#000000" d="M5959,-122.2921C5959,-144.2057 5959,-178 5959,-178 5959,-178 3427.6124,-178 3427.6124,-178"/>
<polygon fill="#000000" stroke="#000000" points="3427.6125,-174.5001 3417.6124,-178 3427.6124,-181.5001 3427.6125,-174.5001"/>
</g>
<!-- NotificationsComponent -->
<g id="node7" class="node">
<title>NotificationsComponent</title>
<polygon fill="#ffffb3" stroke="#000000" points="5885.427,-122 5730.573,-122 5730.573,-86 5885.427,-86 5885.427,-122"/>
<text text-anchor="middle" x="5808" y="-99.8" font-family="Times,serif" font-size="14.00" fill="#000000">NotificationsComponent</text>
</g>
<!-- NotificationsComponent&#45;&gt;MainModule -->
<g id="edge7" class="edge">
<title>NotificationsComponent&#45;&gt;MainModule</title>
<path fill="none" stroke="#000000" d="M5808,-122.1686C5808,-143.498 5808,-176 5808,-176 5808,-176 3427.6057,-176 3427.6057,-176"/>
<polygon fill="#000000" stroke="#000000" points="3427.6058,-172.5001 3417.6057,-176 3427.6057,-179.5001 3427.6058,-172.5001"/>
</g>
<!-- UpgradeComponent -->
<g id="node8" class="node">
<title>UpgradeComponent</title>
<polygon fill="#ffffb3" stroke="#000000" points="5712.5297,-122 5583.4703,-122 5583.4703,-86 5712.5297,-86 5712.5297,-122"/>
<text text-anchor="middle" x="5648" y="-99.8" font-family="Times,serif" font-size="14.00" fill="#000000">UpgradeComponent</text>
</g>
<!-- UpgradeComponent&#45;&gt;MainModule -->
<g id="edge8" class="edge">
<title>UpgradeComponent&#45;&gt;MainModule</title>
<path fill="none" stroke="#000000" d="M5648,-122.0267C5648,-142.7672 5648,-174 5648,-174 5648,-174 3427.6779,-174 3427.6779,-174"/>
<polygon fill="#000000" stroke="#000000" points="3427.6779,-170.5001 3417.6779,-174 3427.6779,-177.5001 3427.6779,-170.5001"/>
</g>
<!-- ProductoresComponent -->
<g id="node9" class="node">
<title>ProductoresComponent</title>
<polygon fill="#ffffb3" stroke="#000000" points="5565.2007,-122 5416.7993,-122 5416.7993,-86 5565.2007,-86 5565.2007,-122"/>
<text text-anchor="middle" x="5491" y="-99.8" font-family="Times,serif" font-size="14.00" fill="#000000">ProductoresComponent</text>
</g>
<!-- ProductoresComponent&#45;&gt;MainModule -->
<g id="edge9" class="edge">
<title>ProductoresComponent&#45;&gt;MainModule</title>
<path fill="none" stroke="#000000" d="M5491,-122.1289C5491,-142.5724 5491,-173 5491,-173 5491,-173 3427.7261,-173 3427.7261,-173"/>
<polygon fill="#000000" stroke="#000000" points="3427.7262,-169.5001 3417.7261,-173 3427.7261,-176.5001 3427.7262,-169.5001"/>
</g>
<!-- MantenimientoComponent -->
<g id="node10" class="node">
<title>MantenimientoComponent</title>
<polygon fill="#ffffb3" stroke="#000000" points="5398.3738,-122 5231.6262,-122 5231.6262,-86 5398.3738,-86 5398.3738,-122"/>
<text text-anchor="middle" x="5315" y="-99.8" font-family="Times,serif" font-size="14.00" fill="#000000">MantenimientoComponent</text>
</g>
<!-- MantenimientoComponent&#45;&gt;MainModule -->
<g id="edge10" class="edge">
<title>MantenimientoComponent&#45;&gt;MainModule</title>
<path fill="none" stroke="#000000" d="M5315,-122.308C5315,-142.1455 5315,-171 5315,-171 5315,-171 3427.6765,-171 3427.6765,-171"/>
<polygon fill="#000000" stroke="#000000" points="3427.6766,-167.5001 3417.6765,-171 3427.6765,-174.5001 3427.6766,-167.5001"/>
</g>
<!-- DialogMantenimiento -->
<g id="node11" class="node">
<title>DialogMantenimiento</title>
<polygon fill="#ffffb3" stroke="#000000" points="5213.6443,-122 5074.3557,-122 5074.3557,-86 5213.6443,-86 5213.6443,-122"/>
<text text-anchor="middle" x="5144" y="-99.8" font-family="Times,serif" font-size="14.00" fill="#000000">DialogMantenimiento</text>
</g>
<!-- DialogMantenimiento&#45;&gt;MainModule -->
<g id="edge11" class="edge">
<title>DialogMantenimiento&#45;&gt;MainModule</title>
<path fill="none" stroke="#000000" d="M5144,-122.1061C5144,-141.3391 5144,-169 5144,-169 5144,-169 3427.6635,-169 3427.6635,-169"/>
<polygon fill="#000000" stroke="#000000" points="3427.6636,-165.5001 3417.6635,-169 3427.6635,-172.5001 3427.6636,-165.5001"/>
</g>
<!-- EstimadoComponent -->
<g id="node12" class="node">
<title>EstimadoComponent</title>
<polygon fill="#ffffb3" stroke="#000000" points="5056.2162,-122 4921.7838,-122 4921.7838,-86 5056.2162,-86 5056.2162,-122"/>
<text text-anchor="middle" x="4989" y="-99.8" font-family="Times,serif" font-size="14.00" fill="#000000">EstimadoComponent</text>
</g>
<!-- EstimadoComponent&#45;&gt;MainModule -->
<g id="edge12" class="edge">
<title>EstimadoComponent&#45;&gt;MainModule</title>
<path fill="none" stroke="#000000" d="M4989,-122.1686C4989,-141.0898 4989,-168 4989,-168 4989,-168 3427.9077,-168 3427.9077,-168"/>
<polygon fill="#000000" stroke="#000000" points="3427.9078,-164.5001 3417.9077,-168 3427.9077,-171.5001 3427.9078,-164.5001"/>
</g>
<!-- InicioComponent -->
<g id="node13" class="node">
<title>InicioComponent</title>
<polygon fill="#ffffb3" stroke="#000000" points="4903.9888,-122 4790.0112,-122 4790.0112,-86 4903.9888,-86 4903.9888,-122"/>
<text text-anchor="middle" x="4847" y="-99.8" font-family="Times,serif" font-size="14.00" fill="#000000">InicioComponent</text>
</g>
<!-- InicioComponent&#45;&gt;MainModule -->
<g id="edge13" class="edge">
<title>InicioComponent&#45;&gt;MainModule</title>
<path fill="none" stroke="#000000" d="M4847,-122.2667C4847,-140.5552 4847,-166 4847,-166 4847,-166 3427.9187,-166 3427.9187,-166"/>
<polygon fill="#000000" stroke="#000000" points="3427.9188,-162.5001 3417.9187,-166 3427.9187,-169.5001 3427.9188,-162.5001"/>
</g>
<!-- EnfundeComponent -->
<g id="node14" class="node">
<title>EnfundeComponent</title>
<polygon fill="#ffffb3" stroke="#000000" points="4772.2604,-122 4643.7396,-122 4643.7396,-86 4772.2604,-86 4772.2604,-122"/>
<text text-anchor="middle" x="4708" y="-99.8" font-family="Times,serif" font-size="14.00" fill="#000000">EnfundeComponent</text>
</g>
<!-- EnfundeComponent&#45;&gt;MainModule -->
<g id="edge14" class="edge">
<title>EnfundeComponent&#45;&gt;MainModule</title>
<path fill="none" stroke="#000000" d="M4708,-122.302C4708,-140.2699 4708,-165 4708,-165 4708,-165 3427.7996,-165 3427.7996,-165"/>
<polygon fill="#000000" stroke="#000000" points="3427.7996,-161.5001 3417.7996,-165 3427.7995,-168.5001 3427.7996,-161.5001"/>
</g>
<!-- EstadisticasComponent -->
<g id="node15" class="node">
<title>EstadisticasComponent</title>
<polygon fill="#ffffb3" stroke="#000000" points="4625.9256,-122 4478.0744,-122 4478.0744,-86 4625.9256,-86 4625.9256,-122"/>
<text text-anchor="middle" x="4552" y="-99.8" font-family="Times,serif" font-size="14.00" fill="#000000">EstadisticasComponent</text>
</g>
<!-- EstadisticasComponent&#45;&gt;MainModule -->
<g id="edge15" class="edge">
<title>EstadisticasComponent&#45;&gt;MainModule</title>
<path fill="none" stroke="#000000" d="M4552,-122.0225C4552,-139.3734 4552,-163 4552,-163 4552,-163 3427.7785,-163 3427.7785,-163"/>
<polygon fill="#000000" stroke="#000000" points="3427.7785,-159.5001 3417.7785,-163 3427.7785,-166.5001 3427.7785,-159.5001"/>
</g>
<!-- ContactosComponent -->
<g id="node16" class="node">
<title>ContactosComponent</title>
<polygon fill="#ffffb3" stroke="#000000" points="4460.8244,-122 4323.1756,-122 4323.1756,-86 4460.8244,-86 4460.8244,-122"/>
<text text-anchor="middle" x="4392" y="-99.8" font-family="Times,serif" font-size="14.00" fill="#000000">ContactosComponent</text>
</g>
<!-- ContactosComponent&#45;&gt;MainModule -->
<g id="edge16" class="edge">
<title>ContactosComponent&#45;&gt;MainModule</title>
<path fill="none" stroke="#000000" d="M4392,-122.0352C4392,-138.7344 4392,-161 4392,-161 4392,-161 3427.7696,-161 3427.7696,-161"/>
<polygon fill="#000000" stroke="#000000" points="3427.7697,-157.5001 3417.7696,-161 3427.7696,-164.5001 3427.7697,-157.5001"/>
</g>
<!-- OrdenCorteComponent -->
<g id="node17" class="node">
<title>OrdenCorteComponent</title>
<polygon fill="#ffffb3" stroke="#000000" points="4305.9172,-122 4158.0828,-122 4158.0828,-86 4305.9172,-86 4305.9172,-122"/>
<text text-anchor="middle" x="4232" y="-99.8" font-family="Times,serif" font-size="14.00" fill="#000000">OrdenCorteComponent</text>
</g>
<!-- OrdenCorteComponent&#45;&gt;MainModule -->
<g id="edge17" class="edge">
<title>OrdenCorteComponent&#45;&gt;MainModule</title>
<path fill="none" stroke="#000000" d="M4232,-122.027C4232,-138.3976 4232,-160 4232,-160 4232,-160 3427.674,-160 3427.674,-160"/>
<polygon fill="#000000" stroke="#000000" points="3427.674,-156.5001 3417.674,-160 3427.6739,-163.5001 3427.674,-156.5001"/>
</g>
<!-- FincaComponent -->
<g id="node18" class="node">
<title>FincaComponent</title>
<polygon fill="#ffffb3" stroke="#000000" points="4140.4356,-122 4027.5644,-122 4027.5644,-86 4140.4356,-86 4140.4356,-122"/>
<text text-anchor="middle" x="4084" y="-99.8" font-family="Times,serif" font-size="14.00" fill="#000000">FincaComponent</text>
</g>
<!-- FincaComponent&#45;&gt;MainModule -->
<g id="edge18" class="edge">
<title>FincaComponent&#45;&gt;MainModule</title>
<path fill="none" stroke="#000000" d="M4084,-122.2819C4084,-137.9478 4084,-158 4084,-158 4084,-158 3427.7456,-158 3427.7456,-158"/>
<polygon fill="#000000" stroke="#000000" points="3427.7456,-154.5001 3417.7456,-158 3427.7455,-161.5001 3427.7456,-154.5001"/>
</g>
<!-- EmbarquesComponent -->
<g id="node19" class="node">
<title>EmbarquesComponent</title>
<polygon fill="#ffffb3" stroke="#000000" points="4010.3103,-122 3865.6897,-122 3865.6897,-86 4010.3103,-86 4010.3103,-122"/>
<text text-anchor="middle" x="3938" y="-99.8" font-family="Times,serif" font-size="14.00" fill="#000000">EmbarquesComponent</text>
</g>
<!-- EmbarquesComponent&#45;&gt;MainModule -->
<g id="edge19" class="edge">
<title>EmbarquesComponent&#45;&gt;MainModule</title>
<path fill="none" stroke="#000000" d="M3938,-122.1871C3938,-137.1824 3938,-156 3938,-156 3938,-156 3427.8069,-156 3427.8069,-156"/>
<polygon fill="#000000" stroke="#000000" points="3427.8069,-152.5001 3417.8069,-156 3427.8068,-159.5001 3427.8069,-152.5001"/>
</g>
<!-- DialogEmbarque -->
<g id="node20" class="node">
<title>DialogEmbarque</title>
<polygon fill="#ffffb3" stroke="#000000" points="3847.636,-122 3736.364,-122 3736.364,-86 3847.636,-86 3847.636,-122"/>
<text text-anchor="middle" x="3792" y="-99.8" font-family="Times,serif" font-size="14.00" fill="#000000">DialogEmbarque</text>
</g>
<!-- DialogEmbarque&#45;&gt;MainModule -->
<g id="edge20" class="edge">
<title>DialogEmbarque&#45;&gt;MainModule</title>
<path fill="none" stroke="#000000" d="M3792,-122.1243C3792,-136.7832 3792,-155 3792,-155 3792,-155 3427.8403,-155 3427.8403,-155"/>
<polygon fill="#000000" stroke="#000000" points="3427.8404,-151.5001 3417.8403,-155 3427.8403,-158.5001 3427.8404,-151.5001"/>
</g>
<!-- ListaEstimadoComponent -->
<g id="node21" class="node">
<title>ListaEstimadoComponent</title>
<polygon fill="#ffffb3" stroke="#000000" points="3718.2091,-122 3555.7909,-122 3555.7909,-86 3718.2091,-86 3718.2091,-122"/>
<text text-anchor="middle" x="3637" y="-99.8" font-family="Times,serif" font-size="14.00" fill="#000000">ListaEstimadoComponent</text>
</g>
<!-- ListaEstimadoComponent&#45;&gt;MainModule -->
<g id="edge21" class="edge">
<title>ListaEstimadoComponent&#45;&gt;MainModule</title>
<path fill="none" stroke="#000000" d="M3637,-122.2458C3637,-136.1772 3637,-153 3637,-153 3637,-153 3427.784,-153 3427.784,-153"/>
<polygon fill="#000000" stroke="#000000" points="3427.784,-149.5001 3417.784,-153 3427.784,-156.5001 3427.784,-149.5001"/>
</g>
<!-- CdkDetailRowDirective -->
<g id="node22" class="node">
<title>CdkDetailRowDirective</title>
<polygon fill="#ffffb3" stroke="#000000" points="3538.0702,-122 3385.9298,-122 3385.9298,-86 3538.0702,-86 3538.0702,-122"/>
<text text-anchor="middle" x="3462" y="-99.8" font-family="Times,serif" font-size="14.00" fill="#000000">CdkDetailRowDirective</text>
</g>
<!-- CdkDetailRowDirective&#45;&gt;MainModule -->
<g id="edge22" class="edge">
<title>CdkDetailRowDirective&#45;&gt;MainModule</title>
<path fill="none" stroke="#000000" d="M3401.7574,-122.1061C3401.7574,-122.1061 3401.7574,-140.991 3401.7574,-140.991"/>
<polygon fill="#000000" stroke="#000000" points="3398.2574,-140.9909 3401.7574,-150.991 3405.2574,-140.991 3398.2574,-140.9909"/>
</g>
<!-- EmbarquesPlusComponent -->
<g id="node23" class="node">
<title>EmbarquesPlusComponent</title>
<polygon fill="#ffffb3" stroke="#000000" points="3368.4283,-122 3199.5717,-122 3199.5717,-86 3368.4283,-86 3368.4283,-122"/>
<text text-anchor="middle" x="3284" y="-99.8" font-family="Times,serif" font-size="14.00" fill="#000000">EmbarquesPlusComponent</text>
</g>
<!-- EmbarquesPlusComponent&#45;&gt;MainModule -->
<g id="edge23" class="edge">
<title>EmbarquesPlusComponent&#45;&gt;MainModule</title>
<path fill="none" stroke="#000000" d="M3348.3321,-122.1061C3348.3321,-122.1061 3348.3321,-140.991 3348.3321,-140.991"/>
<polygon fill="#000000" stroke="#000000" points="3344.8321,-140.9909 3348.3321,-150.991 3351.8321,-140.991 3344.8321,-140.9909"/>
</g>
<!-- DialogEmbarquePlus -->
<g id="node24" class="node">
<title>DialogEmbarquePlus</title>
<polygon fill="#ffffb3" stroke="#000000" points="3181.7534,-122 3046.2466,-122 3046.2466,-86 3181.7534,-86 3181.7534,-122"/>
<text text-anchor="middle" x="3114" y="-99.8" font-family="Times,serif" font-size="14.00" fill="#000000">DialogEmbarquePlus</text>
</g>
<!-- DialogEmbarquePlus&#45;&gt;MainModule -->
<g id="edge24" class="edge">
<title>DialogEmbarquePlus&#45;&gt;MainModule</title>
<path fill="none" stroke="#000000" d="M3114,-122.2458C3114,-136.1772 3114,-153 3114,-153 3114,-153 3318.1813,-153 3318.1813,-153"/>
<polygon fill="#000000" stroke="#000000" points="3318.1814,-156.5001 3328.1813,-153 3318.1813,-149.5001 3318.1814,-156.5001"/>
</g>
<!-- CommonModule -->
<g id="node26" class="node">
<title>CommonModule</title>
<polygon fill="#8dd3c7" stroke="#000000" points="3021.6681,-122 3018.6681,-126 2997.6681,-126 2994.6681,-122 2910.3319,-122 2910.3319,-86 3021.6681,-86 3021.6681,-122"/>
<text text-anchor="middle" x="2966" y="-99.8" font-family="Times,serif" font-size="14.00" fill="#000000">CommonModule</text>
</g>
<!-- CommonModule&#45;&gt;MainModule -->
<g id="edge25" class="edge">
<title>CommonModule&#45;&gt;MainModule</title>
<path fill="none" stroke="#000000" d="M2966,-122.1243C2966,-136.7832 2966,-155 2966,-155 2966,-155 3318.2796,-155 3318.2796,-155"/>
<polygon fill="#000000" stroke="#000000" points="3318.2797,-158.5001 3328.2796,-155 3318.2796,-151.5001 3318.2797,-158.5001"/>
</g>
<!-- FormsModule -->
<g id="node27" class="node">
<title>FormsModule</title>
<polygon fill="#8dd3c7" stroke="#000000" points="2892.8288,-122 2889.8288,-126 2868.8288,-126 2865.8288,-122 2797.1712,-122 2797.1712,-86 2892.8288,-86 2892.8288,-122"/>
<text text-anchor="middle" x="2845" y="-99.8" font-family="Times,serif" font-size="14.00" fill="#000000">FormsModule</text>
</g>
<!-- FormsModule&#45;&gt;MainModule -->
<g id="edge26" class="edge">
<title>FormsModule&#45;&gt;MainModule</title>
<path fill="none" stroke="#000000" d="M2845,-122.1871C2845,-137.1824 2845,-156 2845,-156 2845,-156 3318.4381,-156 3318.4381,-156"/>
<polygon fill="#000000" stroke="#000000" points="3318.4381,-159.5001 3328.4381,-156 3318.438,-152.5001 3318.4381,-159.5001"/>
</g>
<!-- ReactiveFormsModule -->
<g id="node28" class="node">
<title>ReactiveFormsModule</title>
<polygon fill="#8dd3c7" stroke="#000000" points="2779.3047,-122 2776.3047,-126 2755.3047,-126 2752.3047,-122 2634.6953,-122 2634.6953,-86 2779.3047,-86 2779.3047,-122"/>
<text text-anchor="middle" x="2707" y="-99.8" font-family="Times,serif" font-size="14.00" fill="#000000">ReactiveFormsModule</text>
</g>
<!-- ReactiveFormsModule&#45;&gt;MainModule -->
<g id="edge27" class="edge">
<title>ReactiveFormsModule&#45;&gt;MainModule</title>
<path fill="none" stroke="#000000" d="M2707,-122.2819C2707,-137.9478 2707,-158 2707,-158 2707,-158 3318.2677,-158 3318.2677,-158"/>
<polygon fill="#000000" stroke="#000000" points="3318.2677,-161.5001 3328.2677,-158 3318.2677,-154.5001 3318.2677,-161.5001"/>
</g>
<!-- MatButtonModule -->
<g id="node29" class="node">
<title>MatButtonModule</title>
<polygon fill="#8dd3c7" stroke="#000000" points="2617.2176,-122 2614.2176,-126 2593.2176,-126 2590.2176,-122 2496.7824,-122 2496.7824,-86 2617.2176,-86 2617.2176,-122"/>
<text text-anchor="middle" x="2557" y="-99.8" font-family="Times,serif" font-size="14.00" fill="#000000">MatButtonModule</text>
</g>
<!-- MatButtonModule&#45;&gt;MainModule -->
<g id="edge28" class="edge">
<title>MatButtonModule&#45;&gt;MainModule</title>
<path fill="none" stroke="#000000" d="M2557,-122.027C2557,-138.3976 2557,-160 2557,-160 2557,-160 3318.2578,-160 3318.2578,-160"/>
<polygon fill="#000000" stroke="#000000" points="3318.2578,-163.5001 3328.2578,-160 3318.2578,-156.5001 3318.2578,-163.5001"/>
</g>
<!-- MatRippleModule -->
<g id="node30" class="node">
<title>MatRippleModule</title>
<polygon fill="#8dd3c7" stroke="#000000" points="2478.9328,-122 2475.9328,-126 2454.9328,-126 2451.9328,-122 2359.0672,-122 2359.0672,-86 2478.9328,-86 2478.9328,-122"/>
<text text-anchor="middle" x="2419" y="-99.8" font-family="Times,serif" font-size="14.00" fill="#000000">MatRippleModule</text>
</g>
<!-- MatRippleModule&#45;&gt;MainModule -->
<g id="edge29" class="edge">
<title>MatRippleModule&#45;&gt;MainModule</title>
<path fill="none" stroke="#000000" d="M2419,-122.0352C2419,-138.7344 2419,-161 2419,-161 2419,-161 3318.2662,-161 3318.2662,-161"/>
<polygon fill="#000000" stroke="#000000" points="3318.2662,-164.5001 3328.2662,-161 3318.2661,-157.5001 3318.2662,-164.5001"/>
</g>
<!-- MatFormFieldModule -->
<g id="node31" class="node">
<title>MatFormFieldModule</title>
<polygon fill="#8dd3c7" stroke="#000000" points="2341.712,-122 2338.712,-126 2317.712,-126 2314.712,-122 2200.288,-122 2200.288,-86 2341.712,-86 2341.712,-122"/>
<text text-anchor="middle" x="2271" y="-99.8" font-family="Times,serif" font-size="14.00" fill="#000000">MatFormFieldModule</text>
</g>
<!-- MatFormFieldModule&#45;&gt;MainModule -->
<g id="edge30" class="edge">
<title>MatFormFieldModule&#45;&gt;MainModule</title>
<path fill="none" stroke="#000000" d="M2271,-122.0225C2271,-139.3734 2271,-163 2271,-163 2271,-163 3318.4354,-163 3318.4354,-163"/>
<polygon fill="#000000" stroke="#000000" points="3318.4355,-166.5001 3328.4354,-163 3318.4354,-159.5001 3318.4355,-166.5001"/>
</g>
<!-- MatInputModule -->
<g id="node32" class="node">
<title>MatInputModule</title>
<polygon fill="#8dd3c7" stroke="#000000" points="2182.6513,-122 2179.6513,-126 2158.6513,-126 2155.6513,-122 2071.3487,-122 2071.3487,-86 2182.6513,-86 2182.6513,-122"/>
<text text-anchor="middle" x="2127" y="-99.8" font-family="Times,serif" font-size="14.00" fill="#000000">MatInputModule</text>
</g>
<!-- MatInputModule&#45;&gt;MainModule -->
<g id="edge31" class="edge">
<title>MatInputModule&#45;&gt;MainModule</title>
<path fill="none" stroke="#000000" d="M2127,-122.302C2127,-140.2699 2127,-165 2127,-165 2127,-165 3318.2868,-165 3318.2868,-165"/>
<polygon fill="#000000" stroke="#000000" points="3318.2869,-168.5001 3328.2868,-165 3318.2868,-161.5001 3318.2869,-168.5001"/>
</g>
<!-- MatSelectModule -->
<g id="node33" class="node">
<title>MatSelectModule</title>
<polygon fill="#8dd3c7" stroke="#000000" points="2053.3076,-122 2050.3076,-126 2029.3076,-126 2026.3076,-122 1936.6924,-122 1936.6924,-86 2053.3076,-86 2053.3076,-122"/>
<text text-anchor="middle" x="1995" y="-99.8" font-family="Times,serif" font-size="14.00" fill="#000000">MatSelectModule</text>
</g>
<!-- MatSelectModule&#45;&gt;MainModule -->
<g id="edge32" class="edge">
<title>MatSelectModule&#45;&gt;MainModule</title>
<path fill="none" stroke="#000000" d="M1995,-122.2667C1995,-140.5552 1995,-166 1995,-166 1995,-166 3318.3243,-166 3318.3243,-166"/>
<polygon fill="#000000" stroke="#000000" points="3318.3244,-169.5001 3328.3243,-166 3318.3243,-162.5001 3318.3244,-169.5001"/>
</g>
<!-- MatTooltipModule -->
<g id="node34" class="node">
<title>MatTooltipModule</title>
<polygon fill="#8dd3c7" stroke="#000000" points="1918.8244,-122 1915.8244,-126 1894.8244,-126 1891.8244,-122 1795.1756,-122 1795.1756,-86 1918.8244,-86 1918.8244,-122"/>
<text text-anchor="middle" x="1857" y="-99.8" font-family="Times,serif" font-size="14.00" fill="#000000">MatTooltipModule</text>
</g>
<!-- MatTooltipModule&#45;&gt;MainModule -->
<g id="edge33" class="edge">
<title>MatTooltipModule&#45;&gt;MainModule</title>
<path fill="none" stroke="#000000" d="M1857,-122.1686C1857,-141.0898 1857,-168 1857,-168 1857,-168 3318.45,-168 3318.45,-168"/>
<polygon fill="#000000" stroke="#000000" points="3318.4501,-171.5001 3328.45,-168 3318.45,-164.5001 3318.4501,-171.5001"/>
</g>
<!-- HttpClientModule -->
<g id="node35" class="node">
<title>HttpClientModule</title>
<polygon fill="#8dd3c7" stroke="#000000" points="1777.1611,-122 1774.1611,-126 1753.1611,-126 1750.1611,-122 1658.8389,-122 1658.8389,-86 1777.1611,-86 1777.1611,-122"/>
<text text-anchor="middle" x="1718" y="-99.8" font-family="Times,serif" font-size="14.00" fill="#000000">HttpClientModule</text>
</g>
<!-- HttpClientModule&#45;&gt;MainModule -->
<g id="edge34" class="edge">
<title>HttpClientModule&#45;&gt;MainModule</title>
<path fill="none" stroke="#000000" d="M1718,-122.1061C1718,-141.3391 1718,-169 1718,-169 1718,-169 3318.3045,-169 3318.3045,-169"/>
<polygon fill="#000000" stroke="#000000" points="3318.3046,-172.5001 3328.3045,-169 3318.3045,-165.5001 3318.3046,-172.5001"/>
</g>
<!-- apiMaterialModule -->
<g id="node36" class="node">
<title>apiMaterialModule</title>
<polygon fill="#8dd3c7" stroke="#000000" points="1641.0758,-122 1638.0758,-126 1617.0758,-126 1614.0758,-122 1516.9242,-122 1516.9242,-86 1641.0758,-86 1641.0758,-122"/>
<text text-anchor="middle" x="1579" y="-99.8" font-family="Times,serif" font-size="14.00" fill="#000000">apiMaterialModule</text>
</g>
<!-- apiMaterialModule&#45;&gt;MainModule -->
<g id="edge35" class="edge">
<title>apiMaterialModule&#45;&gt;MainModule</title>
<path fill="none" stroke="#000000" d="M1579,-122.308C1579,-142.1455 1579,-171 1579,-171 1579,-171 3318.2061,-171 3318.2061,-171"/>
<polygon fill="#000000" stroke="#000000" points="3318.2061,-174.5001 3328.2061,-171 3318.2061,-167.5001 3318.2061,-174.5001"/>
</g>
<!-- mainRoutingModule -->
<g id="node37" class="node">
<title>mainRoutingModule</title>
<polygon fill="#8dd3c7" stroke="#000000" points="1499.1638,-122 1496.1638,-126 1475.1638,-126 1472.1638,-122 1366.8362,-122 1366.8362,-86 1499.1638,-86 1499.1638,-122"/>
<text text-anchor="middle" x="1433" y="-99.8" font-family="Times,serif" font-size="14.00" fill="#000000">mainRoutingModule</text>
</g>
<!-- mainRoutingModule&#45;&gt;MainModule -->
<g id="edge36" class="edge">
<title>mainRoutingModule&#45;&gt;MainModule</title>
<path fill="none" stroke="#000000" d="M1433,-122.1289C1433,-142.5724 1433,-173 1433,-173 1433,-173 3318.3695,-173 3318.3695,-173"/>
<polygon fill="#000000" stroke="#000000" points="3318.3695,-176.5001 3328.3695,-173 3318.3694,-169.5001 3318.3695,-176.5001"/>
</g>
<!-- ComponentsModule -->
<g id="node38" class="node">
<title>ComponentsModule</title>
<polygon fill="#8dd3c7" stroke="#000000" points="1349.3272,-122 1346.3272,-126 1325.3272,-126 1322.3272,-122 1218.6728,-122 1218.6728,-86 1349.3272,-86 1349.3272,-122"/>
<text text-anchor="middle" x="1284" y="-99.8" font-family="Times,serif" font-size="14.00" fill="#000000">ComponentsModule</text>
</g>
<!-- ComponentsModule&#45;&gt;MainModule -->
<g id="edge37" class="edge">
<title>ComponentsModule&#45;&gt;MainModule</title>
<path fill="none" stroke="#000000" d="M1284,-122.0267C1284,-142.7672 1284,-174 1284,-174 1284,-174 3318.4018,-174 3318.4018,-174"/>
<polygon fill="#000000" stroke="#000000" points="3318.4019,-177.5001 3328.4018,-174 3318.4018,-170.5001 3318.4019,-177.5001"/>
</g>
<!-- Ng5SliderModule -->
<g id="node39" class="node">
<title>Ng5SliderModule</title>
<polygon fill="#8dd3c7" stroke="#000000" points="1200.5954,-122 1197.5954,-126 1176.5954,-126 1173.5954,-122 1083.4046,-122 1083.4046,-86 1200.5954,-86 1200.5954,-122"/>
<text text-anchor="middle" x="1142" y="-99.8" font-family="Times,serif" font-size="14.00" fill="#000000">Ng5SliderModule</text>
</g>
<!-- Ng5SliderModule&#45;&gt;MainModule -->
<g id="edge38" class="edge">
<title>Ng5SliderModule&#45;&gt;MainModule</title>
<path fill="none" stroke="#000000" d="M1142,-122.1686C1142,-143.498 1142,-176 1142,-176 1142,-176 3318.4349,-176 3318.4349,-176"/>
<polygon fill="#000000" stroke="#000000" points="3318.435,-179.5001 3328.4349,-176 3318.4349,-172.5001 3318.435,-179.5001"/>
</g>
<!-- EnfundeService -->
<g id="node40" class="node">
<title>EnfundeService</title>
<ellipse fill="#fdb462" stroke="#000000" cx="986" cy="-104" rx="72.914" ry="18"/>
<text text-anchor="middle" x="986" y="-99.8" font-family="Times,serif" font-size="14.00" fill="#000000">EnfundeService</text>
</g>
<!-- EnfundeService&#45;&gt;MainModule -->
<g id="edge39" class="edge">
<title>EnfundeService&#45;&gt;MainModule</title>
<path fill="none" stroke="#000000" d="M986,-122.2921C986,-144.2057 986,-178 986,-178 986,-178 3318.2347,-178 3318.2347,-178"/>
<polygon fill="#000000" stroke="#000000" points="3318.2347,-181.5001 3328.2347,-178 3318.2346,-174.5001 3318.2347,-181.5001"/>
</g>
<!-- CookieService -->
<g id="node41" class="node">
<title>CookieService</title>
<ellipse fill="#fdb462" stroke="#000000" cx="827" cy="-104" rx="67.776" ry="18"/>
<text text-anchor="middle" x="827" y="-99.8" font-family="Times,serif" font-size="14.00" fill="#000000">CookieService</text>
</g>
<!-- CookieService&#45;&gt;MainModule -->
<g id="edge40" class="edge">
<title>CookieService&#45;&gt;MainModule</title>
<path fill="none" stroke="#000000" d="M827,-122.1554C827,-144.3519 827,-179 827,-179 827,-179 3318.2707,-179 3318.2707,-179"/>
<polygon fill="#000000" stroke="#000000" points="3318.2707,-182.5001 3328.2707,-179 3318.2706,-175.5001 3318.2707,-182.5001"/>
</g>
<!-- OrdenCorteService -->
<g id="node42" class="node">
<title>OrdenCorteService</title>
<ellipse fill="#fdb462" stroke="#000000" cx="656" cy="-104" rx="85.6512" ry="18"/>
<text text-anchor="middle" x="656" y="-99.8" font-family="Times,serif" font-size="14.00" fill="#000000">OrdenCorteService</text>
</g>
<!-- OrdenCorteService&#45;&gt;MainModule -->
<g id="edge41" class="edge">
<title>OrdenCorteService&#45;&gt;MainModule</title>
<path fill="none" stroke="#000000" d="M656,-122.2479C656,-145.0179 656,-181 656,-181 656,-181 3318.3879,-181 3318.3879,-181"/>
<polygon fill="#000000" stroke="#000000" points="3318.3879,-184.5001 3328.3879,-181 3318.3879,-177.5001 3318.3879,-184.5001"/>
</g>
<!-- ProductoresService -->
<g id="node43" class="node">
<title>ProductoresService</title>
<ellipse fill="#fdb462" stroke="#000000" cx="466" cy="-104" rx="86.2329" ry="18"/>
<text text-anchor="middle" x="466" y="-99.8" font-family="Times,serif" font-size="14.00" fill="#000000">ProductoresService</text>
</g>
<!-- ProductoresService&#45;&gt;MainModule -->
<g id="edge42" class="edge">
<title>ProductoresService&#45;&gt;MainModule</title>
<path fill="none" stroke="#000000" d="M466,-122.3228C466,-145.6602 466,-183 466,-183 466,-183 3318.2118,-183 3318.2118,-183"/>
<polygon fill="#000000" stroke="#000000" points="3318.2118,-186.5001 3328.2118,-183 3318.2117,-179.5001 3318.2118,-186.5001"/>
</g>
<!-- EmbarqueService -->
<g id="node44" class="node">
<title>EmbarqueService</title>
<ellipse fill="#fdb462" stroke="#000000" cx="282" cy="-104" rx="79.8546" ry="18"/>
<text text-anchor="middle" x="282" y="-99.8" font-family="Times,serif" font-size="14.00" fill="#000000">EmbarqueService</text>
</g>
<!-- EmbarqueService&#45;&gt;MainModule -->
<g id="edge43" class="edge">
<title>EmbarqueService&#45;&gt;MainModule</title>
<path fill="none" stroke="#000000" d="M282,-122.1532C282,-145.7566 282,-184 282,-184 282,-184 3318.4124,-184 3318.4124,-184"/>
<polygon fill="#000000" stroke="#000000" points="3318.4125,-187.5001 3328.4124,-184 3318.4124,-180.5001 3318.4125,-187.5001"/>
</g>
<!-- EstimadosService -->
<g id="node45" class="node">
<title>EstimadosService</title>
<ellipse fill="#fdb462" stroke="#000000" cx="104" cy="-104" rx="80.4519" ry="18"/>
<text text-anchor="middle" x="104" y="-99.8" font-family="Times,serif" font-size="14.00" fill="#000000">EstimadosService</text>
</g>
<!-- EstimadosService&#45;&gt;MainModule -->
<g id="edge44" class="edge">
<title>EstimadosService&#45;&gt;MainModule</title>
<path fill="none" stroke="#000000" d="M104,-122.1985C104,-146.3563 104,-186 104,-186 104,-186 3318.3409,-186 3318.3409,-186"/>
<polygon fill="#000000" stroke="#000000" points="3318.341,-189.5001 3328.3409,-186 3318.3409,-182.5001 3318.341,-189.5001"/>
</g>
</g>
</svg>
