<?xml version="1.0" encoding="UTF-8" standalone="no"?>
<!DOCTYPE svg PUBLIC "-//W3C//DTD SVG 1.1//EN"
 "http://www.w3.org/Graphics/SVG/1.1/DTD/svg11.dtd">
<!-- Generated by graphviz version 2.40.1 (20161225.0304)
 -->
<!-- Title: dependencies Pages: 1 -->
<svg width="6172pt" height="211pt"
 viewBox="0.00 0.00 6172.00 211.00" xmlns="http://www.w3.org/2000/svg" xmlns:xlink="http://www.w3.org/1999/xlink">
<g id="graph0" class="graph" transform="scale(1 1) rotate(0) translate(4 207)">
<title>dependencies</title>
<polygon fill="#ffffff" stroke="transparent" points="-4,4 -4,-207 6168,-207 6168,4 -4,4"/>
<text text-anchor="start" x="3061.0091" y="-42.4" font-family="sans-serif" font-weight="bold" font-size="14.00" fill="#000000">Legend</text>
<polygon fill="#ffffb3" stroke="transparent" points="2848,-10 2848,-30 2868,-30 2868,-10 2848,-10"/>
<text text-anchor="start" x="2871.629" y="-15.4" font-family="sans-serif" font-size="14.00" fill="#000000"> &#160;Declarations</text>
<polygon fill="#8dd3c7" stroke="transparent" points="2961,-10 2961,-30 2981,-30 2981,-10 2961,-10"/>
<text text-anchor="start" x="2984.7251" y="-15.4" font-family="sans-serif" font-size="14.00" fill="#000000"> &#160;Module</text>
<polygon fill="#80b1d3" stroke="transparent" points="3047,-10 3047,-30 3067,-30 3067,-10 3047,-10"/>
<text text-anchor="start" x="3070.7812" y="-15.4" font-family="sans-serif" font-size="14.00" fill="#000000"> &#160;Bootstrap</text>
<polygon fill="#fdb462" stroke="transparent" points="3144,-10 3144,-30 3164,-30 3164,-10 3144,-10"/>
<text text-anchor="start" x="3167.6732" y="-15.4" font-family="sans-serif" font-size="14.00" fill="#000000"> &#160;Providers</text>
<polygon fill="#fb8072" stroke="transparent" points="3240,-10 3240,-30 3260,-30 3260,-10 3240,-10"/>
<text text-anchor="start" x="3263.7258" y="-15.4" font-family="sans-serif" font-size="14.00" fill="#000000"> &#160;Exports</text>
<g id="clust1" class="cluster">
<title>cluster_apiMaterialModule</title>
<polygon fill="none" stroke="#000000" stroke-dasharray="1,5" points="8,-70 8,-195 6156,-195 6156,-70 8,-70"/>
</g>
<g id="clust4" class="cluster">
<title>cluster_apiMaterialModule_exports</title>
<polygon fill="none" stroke="#000000" points="16,-135 16,-187 6148,-187 6148,-135 16,-135"/>
</g>
<!-- A11yModule  -->
<g id="node1" class="node">
<title>A11yModule </title>
<polygon fill="#fb8072" stroke="#000000" points="6140.1565,-179 6045.8435,-179 6045.8435,-143 6140.1565,-143 6140.1565,-179"/>
<text text-anchor="middle" x="6093" y="-156.8" font-family="Times,serif" font-size="14.00" fill="#000000">A11yModule </text>
</g>
<!-- CdkStepperModule  -->
<g id="node2" class="node">
<title>CdkStepperModule </title>
<polygon fill="#fb8072" stroke="#000000" points="6027.6495,-179 5898.3505,-179 5898.3505,-143 6027.6495,-143 6027.6495,-179"/>
<text text-anchor="middle" x="5963" y="-156.8" font-family="Times,serif" font-size="14.00" fill="#000000">CdkStepperModule </text>
</g>
<!-- CdkTableModule  -->
<g id="node3" class="node">
<title>CdkTableModule </title>
<polygon fill="#fb8072" stroke="#000000" points="5880.2591,-179 5761.7409,-179 5761.7409,-143 5880.2591,-143 5880.2591,-179"/>
<text text-anchor="middle" x="5821" y="-156.8" font-family="Times,serif" font-size="14.00" fill="#000000">CdkTableModule </text>
</g>
<!-- CdkTreeModule  -->
<g id="node4" class="node">
<title>CdkTreeModule </title>
<polygon fill="#fb8072" stroke="#000000" points="5744.0288,-179 5631.9712,-179 5631.9712,-143 5744.0288,-143 5744.0288,-179"/>
<text text-anchor="middle" x="5688" y="-156.8" font-family="Times,serif" font-size="14.00" fill="#000000">CdkTreeModule </text>
</g>
<!-- DragDropModule  -->
<g id="node5" class="node">
<title>DragDropModule </title>
<polygon fill="#fb8072" stroke="#000000" points="5613.799,-179 5494.201,-179 5494.201,-143 5613.799,-143 5613.799,-179"/>
<text text-anchor="middle" x="5554" y="-156.8" font-family="Times,serif" font-size="14.00" fill="#000000">DragDropModule </text>
</g>
<!-- MatAutocompleteModule  -->
<g id="node6" class="node">
<title>MatAutocompleteModule </title>
<polygon fill="#fb8072" stroke="#000000" points="5476.4124,-179 5311.5876,-179 5311.5876,-143 5476.4124,-143 5476.4124,-179"/>
<text text-anchor="middle" x="5394" y="-156.8" font-family="Times,serif" font-size="14.00" fill="#000000">MatAutocompleteModule </text>
</g>
<!-- MatBadgeModule  -->
<g id="node7" class="node">
<title>MatBadgeModule </title>
<polygon fill="#fb8072" stroke="#000000" points="5293.866,-179 5172.134,-179 5172.134,-143 5293.866,-143 5293.866,-179"/>
<text text-anchor="middle" x="5233" y="-156.8" font-family="Times,serif" font-size="14.00" fill="#000000">MatBadgeModule </text>
</g>
<!-- MatBottomSheetModule  -->
<g id="node8" class="node">
<title>MatBottomSheetModule </title>
<polygon fill="#fb8072" stroke="#000000" points="5154.2107,-179 4995.7893,-179 4995.7893,-143 5154.2107,-143 5154.2107,-179"/>
<text text-anchor="middle" x="5075" y="-156.8" font-family="Times,serif" font-size="14.00" fill="#000000">MatBottomSheetModule </text>
</g>
<!-- MatButtonModule  -->
<g id="node9" class="node">
<title>MatButtonModule </title>
<polygon fill="#fb8072" stroke="#000000" points="4977.7177,-179 4854.2823,-179 4854.2823,-143 4977.7177,-143 4977.7177,-179"/>
<text text-anchor="middle" x="4916" y="-156.8" font-family="Times,serif" font-size="14.00" fill="#000000">MatButtonModule </text>
</g>
<!-- MatButtonToggleModule  -->
<g id="node10" class="node">
<title>MatButtonToggleModule </title>
<polygon fill="#fb8072" stroke="#000000" points="4835.8756,-179 4672.1244,-179 4672.1244,-143 4835.8756,-143 4835.8756,-179"/>
<text text-anchor="middle" x="4754" y="-156.8" font-family="Times,serif" font-size="14.00" fill="#000000">MatButtonToggleModule </text>
</g>
<!-- MatCardModule  -->
<g id="node11" class="node">
<title>MatCardModule </title>
<polygon fill="#fb8072" stroke="#000000" points="4654.3116,-179 4541.6884,-179 4541.6884,-143 4654.3116,-143 4654.3116,-179"/>
<text text-anchor="middle" x="4598" y="-156.8" font-family="Times,serif" font-size="14.00" fill="#000000">MatCardModule </text>
</g>
<!-- MatCheckboxModule  -->
<g id="node12" class="node">
<title>MatCheckboxModule </title>
<polygon fill="#fb8072" stroke="#000000" points="4523.3659,-179 4380.6341,-179 4380.6341,-143 4523.3659,-143 4523.3659,-179"/>
<text text-anchor="middle" x="4452" y="-156.8" font-family="Times,serif" font-size="14.00" fill="#000000">MatCheckboxModule </text>
</g>
<!-- MatChipsModule  -->
<g id="node13" class="node">
<title>MatChipsModule </title>
<polygon fill="#fb8072" stroke="#000000" points="4363.2717,-179 4244.7283,-179 4244.7283,-143 4363.2717,-143 4363.2717,-179"/>
<text text-anchor="middle" x="4304" y="-156.8" font-family="Times,serif" font-size="14.00" fill="#000000">MatChipsModule </text>
</g>
<!-- MatStepperModule  -->
<g id="node14" class="node">
<title>MatStepperModule </title>
<polygon fill="#fb8072" stroke="#000000" points="4227.3631,-179 4098.6369,-179 4098.6369,-143 4227.3631,-143 4227.3631,-179"/>
<text text-anchor="middle" x="4163" y="-156.8" font-family="Times,serif" font-size="14.00" fill="#000000">MatStepperModule </text>
</g>
<!-- MatDatepickerModule  -->
<g id="node15" class="node">
<title>MatDatepickerModule </title>
<polygon fill="#fb8072" stroke="#000000" points="4080.5064,-179 3933.4936,-179 3933.4936,-143 4080.5064,-143 4080.5064,-179"/>
<text text-anchor="middle" x="4007" y="-156.8" font-family="Times,serif" font-size="14.00" fill="#000000">MatDatepickerModule </text>
</g>
<!-- MatDialogModule  -->
<g id="node16" class="node">
<title>MatDialogModule </title>
<polygon fill="#fb8072" stroke="#000000" points="3915.7024,-179 3792.2976,-179 3792.2976,-143 3915.7024,-143 3915.7024,-179"/>
<text text-anchor="middle" x="3854" y="-156.8" font-family="Times,serif" font-size="14.00" fill="#000000">MatDialogModule </text>
</g>
<!-- MatDividerModule  -->
<g id="node17" class="node">
<title>MatDividerModule </title>
<polygon fill="#fb8072" stroke="#000000" points="3774.3631,-179 3645.6369,-179 3645.6369,-143 3774.3631,-143 3774.3631,-179"/>
<text text-anchor="middle" x="3710" y="-156.8" font-family="Times,serif" font-size="14.00" fill="#000000">MatDividerModule </text>
</g>
<!-- MatExpansionModule  -->
<g id="node18" class="node">
<title>MatExpansionModule </title>
<polygon fill="#fb8072" stroke="#000000" points="3627.2023,-179 3482.7977,-179 3482.7977,-143 3627.2023,-143 3627.2023,-179"/>
<text text-anchor="middle" x="3555" y="-156.8" font-family="Times,serif" font-size="14.00" fill="#000000">MatExpansionModule </text>
</g>
<!-- MatGridListModule  -->
<g id="node19" class="node">
<title>MatGridListModule </title>
<polygon fill="#fb8072" stroke="#000000" points="3464.5358,-179 3331.4642,-179 3331.4642,-143 3464.5358,-143 3464.5358,-179"/>
<text text-anchor="middle" x="3398" y="-156.8" font-family="Times,serif" font-size="14.00" fill="#000000">MatGridListModule </text>
</g>
<!-- MatIconModule  -->
<g id="node20" class="node">
<title>MatIconModule </title>
<polygon fill="#fb8072" stroke="#000000" points="3313.4758,-179 3202.5242,-179 3202.5242,-143 3313.4758,-143 3313.4758,-179"/>
<text text-anchor="middle" x="3258" y="-156.8" font-family="Times,serif" font-size="14.00" fill="#000000">MatIconModule </text>
</g>
<!-- MatInputModule  -->
<g id="node21" class="node">
<title>MatInputModule </title>
<polygon fill="#fb8072" stroke="#000000" points="3184.6509,-179 3069.3491,-179 3069.3491,-143 3184.6509,-143 3184.6509,-179"/>
<text text-anchor="middle" x="3127" y="-156.8" font-family="Times,serif" font-size="14.00" fill="#000000">MatInputModule </text>
</g>
<!-- MatListModule  -->
<g id="node22" class="node">
<title>MatListModule </title>
<polygon fill="#fb8072" stroke="#000000" points="3051.8787,-179 2944.1213,-179 2944.1213,-143 3051.8787,-143 3051.8787,-179"/>
<text text-anchor="middle" x="2998" y="-156.8" font-family="Times,serif" font-size="14.00" fill="#000000">MatListModule </text>
</g>
<!-- MatMenuModule  -->
<g id="node23" class="node">
<title>MatMenuModule </title>
<polygon fill="#fb8072" stroke="#000000" points="2926.2591,-179 2807.7409,-179 2807.7409,-143 2926.2591,-143 2926.2591,-179"/>
<text text-anchor="middle" x="2867" y="-156.8" font-family="Times,serif" font-size="14.00" fill="#000000">MatMenuModule </text>
</g>
<!-- MatNativeDateModule  -->
<g id="node24" class="node">
<title>MatNativeDateModule </title>
<polygon fill="#fb8072" stroke="#000000" points="2789.8434,-179 2640.1566,-179 2640.1566,-143 2789.8434,-143 2789.8434,-179"/>
<text text-anchor="middle" x="2715" y="-156.8" font-family="Times,serif" font-size="14.00" fill="#000000">MatNativeDateModule </text>
</g>
<!-- MatPaginatorModule  -->
<g id="node25" class="node">
<title>MatPaginatorModule </title>
<polygon fill="#fb8072" stroke="#000000" points="2622.7534,-179 2483.2466,-179 2483.2466,-143 2622.7534,-143 2622.7534,-179"/>
<text text-anchor="middle" x="2553" y="-156.8" font-family="Times,serif" font-size="14.00" fill="#000000">MatPaginatorModule </text>
</g>
<!-- MatProgressBarModule  -->
<g id="node26" class="node">
<title>MatProgressBarModule </title>
<polygon fill="#fb8072" stroke="#000000" points="2465.019,-179 2310.981,-179 2310.981,-143 2465.019,-143 2465.019,-179"/>
<text text-anchor="middle" x="2388" y="-156.8" font-family="Times,serif" font-size="14.00" fill="#000000">MatProgressBarModule </text>
</g>
<!-- MatProgressSpinnerModule  -->
<g id="node27" class="node">
<title>MatProgressSpinnerModule </title>
<polygon fill="#fb8072" stroke="#000000" points="2292.856,-179 2115.144,-179 2115.144,-143 2292.856,-143 2292.856,-179"/>
<text text-anchor="middle" x="2204" y="-156.8" font-family="Times,serif" font-size="14.00" fill="#000000">MatProgressSpinnerModule </text>
</g>
<!-- MatRadioModule  -->
<g id="node28" class="node">
<title>MatRadioModule </title>
<polygon fill="#fb8072" stroke="#000000" points="2097.5414,-179 1978.4586,-179 1978.4586,-143 2097.5414,-143 2097.5414,-179"/>
<text text-anchor="middle" x="2038" y="-156.8" font-family="Times,serif" font-size="14.00" fill="#000000">MatRadioModule </text>
</g>
<!-- MatRippleModule  -->
<g id="node29" class="node">
<title>MatRippleModule </title>
<polygon fill="#fb8072" stroke="#000000" points="1960.432,-179 1837.568,-179 1837.568,-143 1960.432,-143 1960.432,-179"/>
<text text-anchor="middle" x="1899" y="-156.8" font-family="Times,serif" font-size="14.00" fill="#000000">MatRippleModule </text>
</g>
<!-- MatSelectModule  -->
<g id="node30" class="node">
<title>MatSelectModule </title>
<polygon fill="#fb8072" stroke="#000000" points="1819.8074,-179 1700.1926,-179 1700.1926,-143 1819.8074,-143 1819.8074,-179"/>
<text text-anchor="middle" x="1760" y="-156.8" font-family="Times,serif" font-size="14.00" fill="#000000">MatSelectModule </text>
</g>
<!-- MatSidenavModule  -->
<g id="node31" class="node">
<title>MatSidenavModule </title>
<polygon fill="#fb8072" stroke="#000000" points="1682.2023,-179 1551.7977,-179 1551.7977,-143 1682.2023,-143 1682.2023,-179"/>
<text text-anchor="middle" x="1617" y="-156.8" font-family="Times,serif" font-size="14.00" fill="#000000">MatSidenavModule </text>
</g>
<!-- MatSliderModule  -->
<g id="node32" class="node">
<title>MatSliderModule </title>
<polygon fill="#fb8072" stroke="#000000" points="1533.5386,-179 1414.4614,-179 1414.4614,-143 1533.5386,-143 1533.5386,-179"/>
<text text-anchor="middle" x="1474" y="-156.8" font-family="Times,serif" font-size="14.00" fill="#000000">MatSliderModule </text>
</g>
<!-- MatSlideToggleModule  -->
<g id="node33" class="node">
<title>MatSlideToggleModule </title>
<polygon fill="#fb8072" stroke="#000000" points="1396.0358,-179 1241.9642,-179 1241.9642,-143 1396.0358,-143 1396.0358,-179"/>
<text text-anchor="middle" x="1319" y="-156.8" font-family="Times,serif" font-size="14.00" fill="#000000">MatSlideToggleModule </text>
</g>
<!-- MatSnackBarModule  -->
<g id="node34" class="node">
<title>MatSnackBarModule </title>
<polygon fill="#fb8072" stroke="#000000" points="1224.0232,-179 1083.9768,-179 1083.9768,-143 1224.0232,-143 1224.0232,-179"/>
<text text-anchor="middle" x="1154" y="-156.8" font-family="Times,serif" font-size="14.00" fill="#000000">MatSnackBarModule </text>
</g>
<!-- MatSortModule  -->
<g id="node35" class="node">
<title>MatSortModule </title>
<polygon fill="#fb8072" stroke="#000000" points="1066.4334,-179 957.5666,-179 957.5666,-143 1066.4334,-143 1066.4334,-179"/>
<text text-anchor="middle" x="1012" y="-156.8" font-family="Times,serif" font-size="14.00" fill="#000000">MatSortModule </text>
</g>
<!-- MatTableModule  -->
<g id="node36" class="node">
<title>MatTableModule </title>
<polygon fill="#fb8072" stroke="#000000" points="939.973,-179 822.027,-179 822.027,-143 939.973,-143 939.973,-179"/>
<text text-anchor="middle" x="881" y="-156.8" font-family="Times,serif" font-size="14.00" fill="#000000">MatTableModule </text>
</g>
<!-- MatTabsModule  -->
<g id="node37" class="node">
<title>MatTabsModule </title>
<polygon fill="#fb8072" stroke="#000000" points="804.3116,-179 691.6884,-179 691.6884,-143 804.3116,-143 804.3116,-179"/>
<text text-anchor="middle" x="748" y="-156.8" font-family="Times,serif" font-size="14.00" fill="#000000">MatTabsModule </text>
</g>
<!-- MatToolbarModule  -->
<g id="node38" class="node">
<title>MatToolbarModule </title>
<polygon fill="#fb8072" stroke="#000000" points="673.918,-179 544.082,-179 544.082,-143 673.918,-143 673.918,-179"/>
<text text-anchor="middle" x="609" y="-156.8" font-family="Times,serif" font-size="14.00" fill="#000000">MatToolbarModule </text>
</g>
<!-- MatTooltipModule  -->
<g id="node39" class="node">
<title>MatTooltipModule </title>
<polygon fill="#fb8072" stroke="#000000" points="526.3241,-179 399.6759,-179 399.6759,-143 526.3241,-143 526.3241,-179"/>
<text text-anchor="middle" x="463" y="-156.8" font-family="Times,serif" font-size="14.00" fill="#000000">MatTooltipModule </text>
</g>
<!-- MatTreeModule  -->
<g id="node40" class="node">
<title>MatTreeModule </title>
<polygon fill="#fb8072" stroke="#000000" points="381.7423,-179 270.2577,-179 270.2577,-143 381.7423,-143 381.7423,-179"/>
<text text-anchor="middle" x="326" y="-156.8" font-family="Times,serif" font-size="14.00" fill="#000000">MatTreeModule </text>
</g>
<!-- PortalModule  -->
<g id="node41" class="node">
<title>PortalModule </title>
<polygon fill="#fb8072" stroke="#000000" points="252.49,-179 155.51,-179 155.51,-143 252.49,-143 252.49,-179"/>
<text text-anchor="middle" x="204" y="-156.8" font-family="Times,serif" font-size="14.00" fill="#000000">PortalModule </text>
</g>
<!-- ScrollingModule  -->
<g id="node42" class="node">
<title>ScrollingModule </title>
<polygon fill="#fb8072" stroke="#000000" points="138.38,-179 23.62,-179 23.62,-143 138.38,-143 138.38,-179"/>
<text text-anchor="middle" x="81" y="-156.8" font-family="Times,serif" font-size="14.00" fill="#000000">ScrollingModule </text>
</g>
<!-- apiMaterialModule -->
<g id="node43" class="node">
<title>apiMaterialModule</title>
<polygon fill="#8dd3c7" stroke="#000000" points="3124.0758,-114 3121.0758,-118 3100.0758,-118 3097.0758,-114 2999.9242,-114 2999.9242,-78 3124.0758,-78 3124.0758,-114"/>
<text text-anchor="middle" x="3062" y="-91.8" font-family="Times,serif" font-size="14.00" fill="#000000">apiMaterialModule</text>
</g>
<!-- apiMaterialModule&#45;&gt;A11yModule  -->
<g id="edge1" class="edge">
<title>apiMaterialModule&#45;&gt;A11yModule </title>
<path fill="none" stroke="#000000" stroke-dasharray="5,2" d="M3113.1152,-114.1223C3113.1152,-116.9729 3113.1152,-119 3113.1152,-119 3113.1152,-119 6093,-119 6093,-119 6093,-119 6093,-132.9445 6093,-132.9445"/>
<polygon fill="#000000" stroke="#000000" points="6089.5001,-132.9444 6093,-142.9445 6096.5001,-132.9445 6089.5001,-132.9444"/>
</g>
<!-- apiMaterialModule&#45;&gt;CdkStepperModule  -->
<g id="edge2" class="edge">
<title>apiMaterialModule&#45;&gt;CdkStepperModule </title>
<path fill="none" stroke="#000000" stroke-dasharray="5,2" d="M3102.1926,-114.0328C3102.1926,-120.8526 3102.1926,-127 3102.1926,-127 3102.1926,-127 5963,-127 5963,-127 5963,-127 5963,-132.8056 5963,-132.8056"/>
<polygon fill="#000000" stroke="#000000" points="5959.5001,-132.8055 5963,-142.8056 5966.5001,-132.8056 5959.5001,-132.8055"/>
</g>
<!-- apiMaterialModule&#45;&gt;CdkTableModule  -->
<g id="edge3" class="edge">
<title>apiMaterialModule&#45;&gt;CdkTableModule </title>
<path fill="none" stroke="#000000" stroke-dasharray="5,2" d="M3091.2699,-114.1299C3091.2699,-124.3145 3091.2699,-135 3091.2699,-135 3091.2699,-135 5821,-135 5821,-135 5821,-135 5821,-135.7942 5821,-135.7942"/>
<polygon fill="#000000" stroke="#000000" points="5817.5001,-132.9421 5821,-142.9421 5824.5001,-132.9422 5817.5001,-132.9421"/>
</g>
<!-- apiMaterialModule&#45;&gt;CdkTreeModule  -->
<g id="edge4" class="edge">
<title>apiMaterialModule&#45;&gt;CdkTreeModule </title>
<path fill="none" stroke="#000000" stroke-dasharray="5,2" d="M3124.3226,-80C3521.9888,-80 5688,-80 5688,-80 5688,-80 5688,-132.6198 5688,-132.6198"/>
<polygon fill="#000000" stroke="#000000" points="5684.5001,-132.6198 5688,-142.6198 5691.5001,-132.6199 5684.5001,-132.6198"/>
</g>
<!-- apiMaterialModule&#45;&gt;DragDropModule  -->
<g id="edge5" class="edge">
<title>apiMaterialModule&#45;&gt;DragDropModule </title>
<path fill="none" stroke="#000000" stroke-dasharray="5,2" d="M3124.2221,-82C3509.5525,-82 5554,-82 5554,-82 5554,-82 5554,-132.6772 5554,-132.6772"/>
<polygon fill="#000000" stroke="#000000" points="5550.5001,-132.6772 5554,-142.6772 5557.5001,-132.6773 5550.5001,-132.6772"/>
</g>
<!-- apiMaterialModule&#45;&gt;MatAutocompleteModule  -->
<g id="edge6" class="edge">
<title>apiMaterialModule&#45;&gt;MatAutocompleteModule </title>
<path fill="none" stroke="#000000" stroke-dasharray="5,2" d="M3124.0747,-84C3494.2015,-84 5394,-84 5394,-84 5394,-84 5394,-132.7521 5394,-132.7521"/>
<polygon fill="#000000" stroke="#000000" points="5390.5001,-132.752 5394,-142.7521 5397.5001,-132.7521 5390.5001,-132.752"/>
</g>
<!-- apiMaterialModule&#45;&gt;MatBadgeModule  -->
<g id="edge7" class="edge">
<title>apiMaterialModule&#45;&gt;MatBadgeModule </title>
<path fill="none" stroke="#000000" stroke-dasharray="5,2" d="M3124.0534,-86C3478.6853,-86 5233,-86 5233,-86 5233,-86 5233,-132.8446 5233,-132.8446"/>
<polygon fill="#000000" stroke="#000000" points="5229.5001,-132.8446 5233,-142.8446 5236.5001,-132.8446 5229.5001,-132.8446"/>
</g>
<!-- apiMaterialModule&#45;&gt;MatBottomSheetModule  -->
<g id="edge8" class="edge">
<title>apiMaterialModule&#45;&gt;MatBottomSheetModule </title>
<path fill="none" stroke="#000000" stroke-dasharray="5,2" d="M3124.1746,-88C3463.3459,-88 5075,-88 5075,-88 5075,-88 5075,-132.9551 5075,-132.9551"/>
<polygon fill="#000000" stroke="#000000" points="5071.5001,-132.955 5075,-142.9551 5078.5001,-132.9551 5071.5001,-132.955"/>
</g>
<!-- apiMaterialModule&#45;&gt;MatButtonModule  -->
<g id="edge9" class="edge">
<title>apiMaterialModule&#45;&gt;MatButtonModule </title>
<path fill="none" stroke="#000000" stroke-dasharray="5,2" d="M3124.216,-90C3446.9954,-90 4916,-90 4916,-90 4916,-90 4916,-132.7157 4916,-132.7157"/>
<polygon fill="#000000" stroke="#000000" points="4912.5001,-132.7157 4916,-142.7157 4919.5001,-132.7158 4912.5001,-132.7157"/>
</g>
<!-- apiMaterialModule&#45;&gt;MatButtonToggleModule  -->
<g id="edge10" class="edge">
<title>apiMaterialModule&#45;&gt;MatButtonToggleModule </title>
<path fill="none" stroke="#000000" stroke-dasharray="5,2" d="M3124.2258,-92C3429.4851,-92 4754,-92 4754,-92 4754,-92 4754,-132.8711 4754,-132.8711"/>
<polygon fill="#000000" stroke="#000000" points="4750.5001,-132.871 4754,-142.8711 4757.5001,-132.8711 4750.5001,-132.871"/>
</g>
<!-- apiMaterialModule&#45;&gt;MatCardModule  -->
<g id="edge11" class="edge">
<title>apiMaterialModule&#45;&gt;MatCardModule </title>
<path fill="none" stroke="#000000" stroke-dasharray="5,2" d="M3124.1154,-94C3411.4766,-94 4598,-94 4598,-94 4598,-94 4598,-132.692 4598,-132.692"/>
<polygon fill="#000000" stroke="#000000" points="4594.5001,-132.6919 4598,-142.692 4601.5001,-132.692 4594.5001,-132.6919"/>
</g>
<!-- apiMaterialModule&#45;&gt;MatCheckboxModule  -->
<g id="edge12" class="edge">
<title>apiMaterialModule&#45;&gt;MatCheckboxModule </title>
<path fill="none" stroke="#000000" stroke-dasharray="5,2" d="M3124.4258,-96C3394.8958,-96 4452,-96 4452,-96 4452,-96 4452,-132.8939 4452,-132.8939"/>
<polygon fill="#000000" stroke="#000000" points="4448.5001,-132.8938 4452,-142.8939 4455.5001,-132.8939 4448.5001,-132.8938"/>
</g>
<!-- apiMaterialModule&#45;&gt;MatChipsModule  -->
<g id="edge13" class="edge">
<title>apiMaterialModule&#45;&gt;MatChipsModule </title>
<path fill="none" stroke="#000000" stroke-dasharray="5,2" d="M3124.4421,-98C3376.2986,-98 4304,-98 4304,-98 4304,-98 4304,-132.7778 4304,-132.7778"/>
<polygon fill="#000000" stroke="#000000" points="4300.5001,-132.7778 4304,-142.7778 4307.5001,-132.7778 4300.5001,-132.7778"/>
</g>
<!-- apiMaterialModule&#45;&gt;MatStepperModule  -->
<g id="edge14" class="edge">
<title>apiMaterialModule&#45;&gt;MatStepperModule </title>
<path fill="none" stroke="#000000" stroke-dasharray="5,2" d="M3124.3491,-100C3357.2587,-100 4163,-100 4163,-100 4163,-100 4163,-132.698 4163,-132.698"/>
<polygon fill="#000000" stroke="#000000" points="4159.5001,-132.698 4163,-142.698 4166.5001,-132.698 4159.5001,-132.698"/>
</g>
<!-- apiMaterialModule&#45;&gt;MatDatepickerModule  -->
<g id="edge15" class="edge">
<title>apiMaterialModule&#45;&gt;MatDatepickerModule </title>
<path fill="none" stroke="#000000" stroke-dasharray="5,2" d="M3124.3695,-102C3335.0196,-102 4007,-102 4007,-102 4007,-102 4007,-132.9775 4007,-132.9775"/>
<polygon fill="#000000" stroke="#000000" points="4003.5001,-132.9774 4007,-142.9775 4010.5001,-132.9775 4003.5001,-132.9774"/>
</g>
<!-- apiMaterialModule&#45;&gt;MatDialogModule  -->
<g id="edge16" class="edge">
<title>apiMaterialModule&#45;&gt;MatDialogModule </title>
<path fill="none" stroke="#000000" stroke-dasharray="5,2" d="M3124.1469,-104C3310.8535,-104 3854,-104 3854,-104 3854,-104 3854,-132.9648 3854,-132.9648"/>
<polygon fill="#000000" stroke="#000000" points="3850.5001,-132.9648 3854,-142.9648 3857.5001,-132.9649 3850.5001,-132.9648"/>
</g>
<!-- apiMaterialModule&#45;&gt;MatDividerModule  -->
<g id="edge17" class="edge">
<title>apiMaterialModule&#45;&gt;MatDividerModule </title>
<path fill="none" stroke="#000000" stroke-dasharray="5,2" d="M3124.133,-106C3286.3221,-106 3710,-106 3710,-106 3710,-106 3710,-132.9909 3710,-132.9909"/>
<polygon fill="#000000" stroke="#000000" points="3706.5001,-132.9909 3710,-142.9909 3713.5001,-132.991 3706.5001,-132.9909"/>
</g>
<!-- apiMaterialModule&#45;&gt;MatExpansionModule  -->
<g id="edge18" class="edge">
<title>apiMaterialModule&#45;&gt;MatExpansionModule </title>
<path fill="none" stroke="#000000" stroke-dasharray="5,2" d="M3124.4388,-108C3257.0982,-108 3555,-108 3555,-108 3555,-108 3555,-132.7604 3555,-132.7604"/>
<polygon fill="#000000" stroke="#000000" points="3551.5001,-132.7604 3555,-142.7604 3558.5001,-132.7604 3551.5001,-132.7604"/>
</g>
<!-- apiMaterialModule&#45;&gt;MatGridListModule  -->
<g id="edge19" class="edge">
<title>apiMaterialModule&#45;&gt;MatGridListModule </title>
<path fill="none" stroke="#000000" stroke-dasharray="5,2" d="M3124.4116,-110C3221.5803,-110 3398,-110 3398,-110 3398,-110 3398,-132.8757 3398,-132.8757"/>
<polygon fill="#000000" stroke="#000000" points="3394.5001,-132.8757 3398,-142.8757 3401.5001,-132.8757 3394.5001,-132.8757"/>
</g>
<!-- apiMaterialModule&#45;&gt;MatIconModule  -->
<g id="edge20" class="edge">
<title>apiMaterialModule&#45;&gt;MatIconModule </title>
<path fill="none" stroke="#000000" stroke-dasharray="5,2" d="M3124.2849,-112C3181.6766,-112 3258,-112 3258,-112 3258,-112 3258,-132.7542 3258,-132.7542"/>
<polygon fill="#000000" stroke="#000000" points="3254.5001,-132.7542 3258,-142.7542 3261.5001,-132.7542 3254.5001,-132.7542"/>
</g>
<!-- apiMaterialModule&#45;&gt;MatInputModule  -->
<g id="edge21" class="edge">
<title>apiMaterialModule&#45;&gt;MatInputModule </title>
<path fill="none" stroke="#000000" stroke-dasharray="5,2" d="M3080.3473,-114.1061C3080.3473,-114.1061 3080.3473,-132.991 3080.3473,-132.991"/>
<polygon fill="#000000" stroke="#000000" points="3076.8474,-132.9909 3080.3473,-142.991 3083.8474,-132.991 3076.8474,-132.9909"/>
</g>
<!-- apiMaterialModule&#45;&gt;MatListModule  -->
<g id="edge22" class="edge">
<title>apiMaterialModule&#45;&gt;MatListModule </title>
<path fill="none" stroke="#000000" stroke-dasharray="5,2" d="M3041.3436,-114.1061C3041.3436,-114.1061 3041.3436,-132.991 3041.3436,-132.991"/>
<polygon fill="#000000" stroke="#000000" points="3037.8437,-132.9909 3041.3436,-142.991 3044.8437,-132.991 3037.8437,-132.9909"/>
</g>
<!-- apiMaterialModule&#45;&gt;MatMenuModule  -->
<g id="edge23" class="edge">
<title>apiMaterialModule&#45;&gt;MatMenuModule </title>
<path fill="none" stroke="#000000" stroke-dasharray="5,2" d="M2999.7646,-112C2942.6965,-112 2867,-112 2867,-112 2867,-112 2867,-132.7542 2867,-132.7542"/>
<polygon fill="#000000" stroke="#000000" points="2863.5001,-132.7542 2867,-142.7542 2870.5001,-132.7542 2863.5001,-132.7542"/>
</g>
<!-- apiMaterialModule&#45;&gt;MatNativeDateModule  -->
<g id="edge24" class="edge">
<title>apiMaterialModule&#45;&gt;MatNativeDateModule </title>
<path fill="none" stroke="#000000" stroke-dasharray="5,2" d="M2999.5626,-110C2899.6591,-110 2715,-110 2715,-110 2715,-110 2715,-132.8757 2715,-132.8757"/>
<polygon fill="#000000" stroke="#000000" points="2711.5001,-132.8757 2715,-142.8757 2718.5001,-132.8757 2711.5001,-132.8757"/>
</g>
<!-- apiMaterialModule&#45;&gt;MatPaginatorModule  -->
<g id="edge25" class="edge">
<title>apiMaterialModule&#45;&gt;MatPaginatorModule </title>
<path fill="none" stroke="#000000" stroke-dasharray="5,2" d="M2999.8412,-108C2864.0574,-108 2553,-108 2553,-108 2553,-108 2553,-132.7604 2553,-132.7604"/>
<polygon fill="#000000" stroke="#000000" points="2549.5001,-132.7604 2553,-142.7604 2556.5001,-132.7604 2549.5001,-132.7604"/>
</g>
<!-- apiMaterialModule&#45;&gt;MatProgressBarModule  -->
<g id="edge26" class="edge">
<title>apiMaterialModule&#45;&gt;MatProgressBarModule </title>
<path fill="none" stroke="#000000" stroke-dasharray="5,2" d="M2999.7998,-106C2832.9453,-106 2388,-106 2388,-106 2388,-106 2388,-132.9909 2388,-132.9909"/>
<polygon fill="#000000" stroke="#000000" points="2384.5001,-132.9909 2388,-142.9909 2391.5001,-132.991 2384.5001,-132.9909"/>
</g>
<!-- apiMaterialModule&#45;&gt;MatProgressSpinnerModule  -->
<g id="edge27" class="edge">
<title>apiMaterialModule&#45;&gt;MatProgressSpinnerModule </title>
<path fill="none" stroke="#000000" stroke-dasharray="5,2" d="M2999.9496,-104C2802.8629,-104 2204,-104 2204,-104 2204,-104 2204,-132.9648 2204,-132.9648"/>
<polygon fill="#000000" stroke="#000000" points="2200.5001,-132.9648 2204,-142.9648 2207.5001,-132.9649 2200.5001,-132.9648"/>
</g>
<!-- apiMaterialModule&#45;&gt;MatRadioModule  -->
<g id="edge28" class="edge">
<title>apiMaterialModule&#45;&gt;MatRadioModule </title>
<path fill="none" stroke="#000000" stroke-dasharray="5,2" d="M2999.8685,-102C2778.01,-102 2038,-102 2038,-102 2038,-102 2038,-132.9775 2038,-132.9775"/>
<polygon fill="#000000" stroke="#000000" points="2034.5001,-132.9774 2038,-142.9775 2041.5001,-132.9775 2034.5001,-132.9774"/>
</g>
<!-- apiMaterialModule&#45;&gt;MatRippleModule  -->
<g id="edge29" class="edge">
<title>apiMaterialModule&#45;&gt;MatRippleModule </title>
<path fill="none" stroke="#000000" stroke-dasharray="5,2" d="M2999.8832,-100C2758.8813,-100 1899,-100 1899,-100 1899,-100 1899,-132.698 1899,-132.698"/>
<polygon fill="#000000" stroke="#000000" points="1895.5001,-132.698 1899,-142.698 1902.5001,-132.698 1895.5001,-132.698"/>
</g>
<!-- apiMaterialModule&#45;&gt;MatSelectModule  -->
<g id="edge30" class="edge">
<title>apiMaterialModule&#45;&gt;MatSelectModule </title>
<path fill="none" stroke="#000000" stroke-dasharray="5,2" d="M2999.6405,-98C2740.2254,-98 1760,-98 1760,-98 1760,-98 1760,-132.7778 1760,-132.7778"/>
<polygon fill="#000000" stroke="#000000" points="1756.5001,-132.7778 1760,-142.7778 1763.5001,-132.7778 1756.5001,-132.7778"/>
</g>
<!-- apiMaterialModule&#45;&gt;MatSidenavModule  -->
<g id="edge31" class="edge">
<title>apiMaterialModule&#45;&gt;MatSidenavModule </title>
<path fill="none" stroke="#000000" stroke-dasharray="5,2" d="M2999.9102,-96C2723.3281,-96 1617,-96 1617,-96 1617,-96 1617,-132.8939 1617,-132.8939"/>
<polygon fill="#000000" stroke="#000000" points="1613.5001,-132.8938 1617,-142.8939 1620.5001,-132.8939 1613.5001,-132.8938"/>
</g>
<!-- apiMaterialModule&#45;&gt;MatSliderModule  -->
<g id="edge32" class="edge">
<title>apiMaterialModule&#45;&gt;MatSliderModule </title>
<path fill="none" stroke="#000000" stroke-dasharray="5,2" d="M2999.7485,-94C2706.1502,-94 1474,-94 1474,-94 1474,-94 1474,-132.692 1474,-132.692"/>
<polygon fill="#000000" stroke="#000000" points="1470.5001,-132.6919 1474,-142.692 1477.5001,-132.692 1470.5001,-132.6919"/>
</g>
<!-- apiMaterialModule&#45;&gt;MatSlideToggleModule  -->
<g id="edge33" class="edge">
<title>apiMaterialModule&#45;&gt;MatSlideToggleModule </title>
<path fill="none" stroke="#000000" stroke-dasharray="5,2" d="M2999.709,-92C2688.7143,-92 1319,-92 1319,-92 1319,-92 1319,-132.8711 1319,-132.8711"/>
<polygon fill="#000000" stroke="#000000" points="1315.5001,-132.871 1319,-142.8711 1322.5001,-132.8711 1315.5001,-132.871"/>
</g>
<!-- apiMaterialModule&#45;&gt;MatSnackBarModule  -->
<g id="edge34" class="edge">
<title>apiMaterialModule&#45;&gt;MatSnackBarModule </title>
<path fill="none" stroke="#000000" stroke-dasharray="5,2" d="M2999.8721,-90C2671.6018,-90 1154,-90 1154,-90 1154,-90 1154,-132.7157 1154,-132.7157"/>
<polygon fill="#000000" stroke="#000000" points="1150.5001,-132.7157 1154,-142.7157 1157.5001,-132.7158 1150.5001,-132.7157"/>
</g>
<!-- apiMaterialModule&#45;&gt;MatSortModule  -->
<g id="edge35" class="edge">
<title>apiMaterialModule&#45;&gt;MatSortModule </title>
<path fill="none" stroke="#000000" stroke-dasharray="5,2" d="M2999.8089,-88C2656.8617,-88 1012,-88 1012,-88 1012,-88 1012,-132.9551 1012,-132.9551"/>
<polygon fill="#000000" stroke="#000000" points="1008.5001,-132.955 1012,-142.9551 1015.5001,-132.9551 1008.5001,-132.955"/>
</g>
<!-- apiMaterialModule&#45;&gt;MatTableModule  -->
<g id="edge36" class="edge">
<title>apiMaterialModule&#45;&gt;MatTableModule </title>
<path fill="none" stroke="#000000" stroke-dasharray="5,2" d="M2999.9508,-86C2644.3528,-86 881,-86 881,-86 881,-86 881,-132.8446 881,-132.8446"/>
<polygon fill="#000000" stroke="#000000" points="877.5001,-132.8446 881,-142.8446 884.5001,-132.8446 877.5001,-132.8446"/>
</g>
<!-- apiMaterialModule&#45;&gt;MatTabsModule  -->
<g id="edge37" class="edge">
<title>apiMaterialModule&#45;&gt;MatTabsModule </title>
<path fill="none" stroke="#000000" stroke-dasharray="5,2" d="M2999.8071,-84C2631.0955,-84 748,-84 748,-84 748,-84 748,-132.7521 748,-132.7521"/>
<polygon fill="#000000" stroke="#000000" points="744.5001,-132.752 748,-142.7521 751.5001,-132.7521 744.5001,-132.752"/>
</g>
<!-- apiMaterialModule&#45;&gt;MatToolbarModule  -->
<g id="edge38" class="edge">
<title>apiMaterialModule&#45;&gt;MatToolbarModule </title>
<path fill="none" stroke="#000000" stroke-dasharray="5,2" d="M2999.8284,-82C2618.1984,-82 609,-82 609,-82 609,-82 609,-132.6772 609,-132.6772"/>
<polygon fill="#000000" stroke="#000000" points="605.5001,-132.6772 609,-142.6772 612.5001,-132.6773 605.5001,-132.6772"/>
</g>
<!-- apiMaterialModule&#45;&gt;MatTooltipModule  -->
<g id="edge39" class="edge">
<title>apiMaterialModule&#45;&gt;MatTooltipModule </title>
<path fill="none" stroke="#000000" stroke-dasharray="5,2" d="M2999.6818,-80C2604.4363,-80 463,-80 463,-80 463,-80 463,-132.6198 463,-132.6198"/>
<polygon fill="#000000" stroke="#000000" points="459.5001,-132.6198 463,-142.6198 466.5001,-132.6199 459.5001,-132.6198"/>
</g>
<!-- apiMaterialModule&#45;&gt;MatTreeModule  -->
<g id="edge40" class="edge">
<title>apiMaterialModule&#45;&gt;MatTreeModule </title>
<path fill="none" stroke="#000000" stroke-dasharray="5,2" d="M3030.9982,-114.4854C3030.9982,-126.1399 3030.9982,-139 3030.9982,-139 3030.9982,-139 326,-139 326,-139 326,-139 326,-139.3832 326,-139.3832"/>
<polygon fill="#000000" stroke="#000000" points="322.5003,-132.832 326,-142.8321 329.5003,-132.8322 322.5003,-132.832"/>
</g>
<!-- apiMaterialModule&#45;&gt;PortalModule  -->
<g id="edge41" class="edge">
<title>apiMaterialModule&#45;&gt;PortalModule </title>
<path fill="none" stroke="#000000" stroke-dasharray="5,2" d="M3020.6529,-114.32C3020.6529,-122.7883 3020.6529,-131 3020.6529,-131 3020.6529,-131 204,-131 204,-131 204,-131 204,-132.8568 204,-132.8568"/>
<polygon fill="#000000" stroke="#000000" points="200.5001,-132.8568 204,-142.8568 207.5001,-132.8568 200.5001,-132.8568"/>
</g>
<!-- apiMaterialModule&#45;&gt;ScrollingModule  -->
<g id="edge42" class="edge">
<title>apiMaterialModule&#45;&gt;ScrollingModule </title>
<path fill="none" stroke="#000000" stroke-dasharray="5,2" d="M3010.3075,-114.1592C3010.3075,-119.0433 3010.3075,-123 3010.3075,-123 3010.3075,-123 81,-123 81,-123 81,-123 81,-132.8903 81,-132.8903"/>
<polygon fill="#000000" stroke="#000000" points="77.5001,-132.8903 81,-142.8903 84.5001,-132.8904 77.5001,-132.8903"/>
</g>
</g>
</svg>
