<?xml version="1.0" encoding="UTF-8" standalone="no"?>
<!DOCTYPE svg PUBLIC "-//W3C//DTD SVG 1.1//EN"
 "http://www.w3.org/Graphics/SVG/1.1/DTD/svg11.dtd">
<!-- Generated by graphviz version 2.40.1 (20161225.0304)
 -->
<!-- Title: dependencies Pages: 1 -->
<svg width="1041pt" height="211pt"
 viewBox="0.00 0.00 1041.00 211.00" xmlns="http://www.w3.org/2000/svg" xmlns:xlink="http://www.w3.org/1999/xlink">
<g id="graph0" class="graph" transform="scale(1 1) rotate(0) translate(4 207)">
<title>dependencies</title>
<polygon fill="#ffffff" stroke="transparent" points="-4,4 -4,-207 1037,-207 1037,4 -4,4"/>
<text text-anchor="start" x="495.5091" y="-42.4" font-family="sans-serif" font-weight="bold" font-size="14.00" fill="#000000">Legend</text>
<polygon fill="#ffffb3" stroke="transparent" points="282.5,-10 282.5,-30 302.5,-30 302.5,-10 282.5,-10"/>
<text text-anchor="start" x="306.129" y="-15.4" font-family="sans-serif" font-size="14.00" fill="#000000"> &#160;Declarations</text>
<polygon fill="#8dd3c7" stroke="transparent" points="395.5,-10 395.5,-30 415.5,-30 415.5,-10 395.5,-10"/>
<text text-anchor="start" x="419.2251" y="-15.4" font-family="sans-serif" font-size="14.00" fill="#000000"> &#160;Module</text>
<polygon fill="#80b1d3" stroke="transparent" points="481.5,-10 481.5,-30 501.5,-30 501.5,-10 481.5,-10"/>
<text text-anchor="start" x="505.2812" y="-15.4" font-family="sans-serif" font-size="14.00" fill="#000000"> &#160;Bootstrap</text>
<polygon fill="#fdb462" stroke="transparent" points="578.5,-10 578.5,-30 598.5,-30 598.5,-10 578.5,-10"/>
<text text-anchor="start" x="602.1732" y="-15.4" font-family="sans-serif" font-size="14.00" fill="#000000"> &#160;Providers</text>
<polygon fill="#fb8072" stroke="transparent" points="674.5,-10 674.5,-30 694.5,-30 694.5,-10 674.5,-10"/>
<text text-anchor="start" x="698.2258" y="-15.4" font-family="sans-serif" font-size="14.00" fill="#000000"> &#160;Exports</text>
<g id="clust1" class="cluster">
<title>cluster_AccountModule</title>
<polygon fill="none" stroke="#000000" stroke-dasharray="1,5" points="8,-70 8,-195 1025,-195 1025,-70 8,-70"/>
</g>
<g id="clust2" class="cluster">
<title>cluster_AccountModule_declarations</title>
<polygon fill="none" stroke="#000000" points="740,-78 740,-130 1017,-130 1017,-78 740,-78"/>
</g>
<g id="clust5" class="cluster">
<title>cluster_AccountModule_imports</title>
<polygon fill="none" stroke="#000000" points="16,-78 16,-130 732,-130 732,-78 16,-78"/>
</g>
<!-- AccountComponent -->
<g id="node1" class="node">
<title>AccountComponent</title>
<polygon fill="#ffffb3" stroke="#000000" points="1009.259,-122 880.741,-122 880.741,-86 1009.259,-86 1009.259,-122"/>
<text text-anchor="middle" x="945" y="-99.8" font-family="Times,serif" font-size="14.00" fill="#000000">AccountComponent</text>
</g>
<!-- AccountModule -->
<g id="node3" class="node">
<title>AccountModule</title>
<polygon fill="#8dd3c7" stroke="#000000" points="571.4762,-187 568.4762,-191 547.4762,-191 544.4762,-187 464.5238,-187 464.5238,-151 571.4762,-151 571.4762,-187"/>
<text text-anchor="middle" x="518" y="-164.8" font-family="Times,serif" font-size="14.00" fill="#000000">AccountModule</text>
</g>
<!-- AccountComponent&#45;&gt;AccountModule -->
<g id="edge1" class="edge">
<title>AccountComponent&#45;&gt;AccountModule</title>
<path fill="none" stroke="#000000" d="M945,-122.2921C945,-144.2057 945,-178 945,-178 945,-178 581.6475,-178 581.6475,-178"/>
<polygon fill="#000000" stroke="#000000" points="581.6475,-174.5001 571.6475,-178 581.6474,-181.5001 581.6475,-174.5001"/>
</g>
<!-- LoginComponent -->
<g id="node2" class="node">
<title>LoginComponent</title>
<polygon fill="#ffffb3" stroke="#000000" points="862.2758,-122 747.7242,-122 747.7242,-86 862.2758,-86 862.2758,-122"/>
<text text-anchor="middle" x="805" y="-99.8" font-family="Times,serif" font-size="14.00" fill="#000000">LoginComponent</text>
</g>
<!-- LoginComponent&#45;&gt;AccountModule -->
<g id="edge2" class="edge">
<title>LoginComponent&#45;&gt;AccountModule</title>
<path fill="none" stroke="#000000" d="M805,-122.1061C805,-141.3391 805,-169 805,-169 805,-169 581.6458,-169 581.6458,-169"/>
<polygon fill="#000000" stroke="#000000" points="581.6459,-165.5001 571.6458,-169 581.6458,-172.5001 581.6459,-165.5001"/>
</g>
<!-- CommonModule -->
<g id="node4" class="node">
<title>CommonModule</title>
<polygon fill="#8dd3c7" stroke="#000000" points="723.6681,-122 720.6681,-126 699.6681,-126 696.6681,-122 612.3319,-122 612.3319,-86 723.6681,-86 723.6681,-122"/>
<text text-anchor="middle" x="668" y="-99.8" font-family="Times,serif" font-size="14.00" fill="#000000">CommonModule</text>
</g>
<!-- CommonModule&#45;&gt;AccountModule -->
<g id="edge3" class="edge">
<title>CommonModule&#45;&gt;AccountModule</title>
<path fill="none" stroke="#000000" d="M668,-122.027C668,-138.3976 668,-160 668,-160 668,-160 581.7298,-160 581.7298,-160"/>
<polygon fill="#000000" stroke="#000000" points="581.7298,-156.5001 571.7298,-160 581.7297,-163.5001 581.7298,-156.5001"/>
</g>
<!-- AccountRoutingModule -->
<g id="node5" class="node">
<title>AccountRoutingModule</title>
<polygon fill="#8dd3c7" stroke="#000000" points="594.094,-122 591.094,-126 570.094,-126 567.094,-122 441.906,-122 441.906,-86 594.094,-86 594.094,-122"/>
<text text-anchor="middle" x="518" y="-99.8" font-family="Times,serif" font-size="14.00" fill="#000000">AccountRoutingModule</text>
</g>
<!-- AccountRoutingModule&#45;&gt;AccountModule -->
<g id="edge4" class="edge">
<title>AccountRoutingModule&#45;&gt;AccountModule</title>
<path fill="none" stroke="#000000" d="M518,-122.1061C518,-122.1061 518,-140.991 518,-140.991"/>
<polygon fill="#000000" stroke="#000000" points="514.5001,-140.9909 518,-150.991 521.5001,-140.991 514.5001,-140.9909"/>
</g>
<!-- apiMaterialModule -->
<g id="node6" class="node">
<title>apiMaterialModule</title>
<polygon fill="#8dd3c7" stroke="#000000" points="424.0758,-122 421.0758,-126 400.0758,-126 397.0758,-122 299.9242,-122 299.9242,-86 424.0758,-86 424.0758,-122"/>
<text text-anchor="middle" x="362" y="-99.8" font-family="Times,serif" font-size="14.00" fill="#000000">apiMaterialModule</text>
</g>
<!-- apiMaterialModule&#45;&gt;AccountModule -->
<g id="edge5" class="edge">
<title>apiMaterialModule&#45;&gt;AccountModule</title>
<path fill="none" stroke="#000000" d="M362,-122.027C362,-138.3976 362,-160 362,-160 362,-160 454.3136,-160 454.3136,-160"/>
<polygon fill="#000000" stroke="#000000" points="454.3137,-163.5001 464.3136,-160 454.3136,-156.5001 454.3137,-163.5001"/>
</g>
<!-- FormsModule -->
<g id="node7" class="node">
<title>FormsModule</title>
<polygon fill="#8dd3c7" stroke="#000000" points="281.8288,-122 278.8288,-126 257.8288,-126 254.8288,-122 186.1712,-122 186.1712,-86 281.8288,-86 281.8288,-122"/>
<text text-anchor="middle" x="234" y="-99.8" font-family="Times,serif" font-size="14.00" fill="#000000">FormsModule</text>
</g>
<!-- FormsModule&#45;&gt;AccountModule -->
<g id="edge6" class="edge">
<title>FormsModule&#45;&gt;AccountModule</title>
<path fill="none" stroke="#000000" d="M234,-122.1061C234,-141.3391 234,-169 234,-169 234,-169 454.2479,-169 454.2479,-169"/>
<polygon fill="#000000" stroke="#000000" points="454.2479,-172.5001 464.2479,-169 454.2479,-165.5001 454.2479,-172.5001"/>
</g>
<!-- ReactiveFormsModule -->
<g id="node8" class="node">
<title>ReactiveFormsModule</title>
<polygon fill="#8dd3c7" stroke="#000000" points="168.3047,-122 165.3047,-126 144.3047,-126 141.3047,-122 23.6953,-122 23.6953,-86 168.3047,-86 168.3047,-122"/>
<text text-anchor="middle" x="96" y="-99.8" font-family="Times,serif" font-size="14.00" fill="#000000">ReactiveFormsModule</text>
</g>
<!-- ReactiveFormsModule&#45;&gt;AccountModule -->
<g id="edge7" class="edge">
<title>ReactiveFormsModule&#45;&gt;AccountModule</title>
<path fill="none" stroke="#000000" d="M96,-122.2921C96,-144.2057 96,-178 96,-178 96,-178 454.1248,-178 454.1248,-178"/>
<polygon fill="#000000" stroke="#000000" points="454.1248,-181.5001 464.1248,-178 454.1247,-174.5001 454.1248,-181.5001"/>
</g>
</g>
</svg>
